Active Internet connections
Proto Recv-Q Send-Q  Local Address          Foreign Address        (state)
tcp4       0      0  192.168.100.4.49278    bud02s26-in-f14..http  ESTABLISHED
tcp4       0      0  192.168.100.4.49277    244-205-57-86.be.https ESTABLISHED
tcp4       0      0  192.168.100.4.49276    bud02s21-in-f14..https ESTABLISHED
tcp4       0      0  192.168.100.4.49275    a23-8-7-153.depl.https ESTABLISHED
tcp4       0      0  192.168.100.4.49273    stackoverflow.co.https ESTABLISHED
tcp4       0      0  192.168.100.4.49272    a23-8-7-153.depl.https ESTABLISHED
tcp4       0      0  192.168.100.4.49271    a172-227-124-249.https ESTABLISHED
tcp4       0      0  192.168.100.4.49270    server-13-33-44-.https ESTABLISHED
tcp4       0      0  192.168.100.4.49269    104.16.110.18.https    ESTABLISHED
tcp4     343      0  192.168.100.4.49268    104.16.110.18.https    ESTABLISHED
tcp4       0      0  192.168.100.4.49267    a23-8-7-153.depl.https ESTABLISHED
tcp4       0      0  192.168.100.4.49266    192.0.73.2.https       ESTABLISHED
tcp4       0      0  192.168.100.4.49265    151.101.193.69.https   ESTABLISHED
tcp4       0      0  192.168.100.4.49264    waw02s07-in-f5.1.https ESTABLISHED
tcp4       0      0  192.168.100.4.49255    81.198.165.217.http    ESTABLISHED
tcp4       0      0  192.168.100.4.49251    m-prd-umpxl-adco.https ESTABLISHED
tcp4       0      0  192.168.100.4.49250    62.67.193.85.http      ESTABLISHED
tcp4       0      0  192.168.100.4.49249    waw02s08-in-f194.http  CLOSE_WAIT
tcp4       0      0  192.168.100.4.49247    185.29.135.226.https   ESTABLISHED
tcp4       0      0  192.168.100.4.49244    a23-193-41-238.d.http  CLOSE_WAIT
tcp4       0      0  192.168.100.4.49242    a.tribalfusion.c.https ESTABLISHED
tcp4       0      0  192.168.100.4.49241    a.tribalfusion.c.https ESTABLISHED
tcp4       0      0  192.168.100.4.49240    152.195.53.78.http     ESTABLISHED
tcp4       0      0  192.168.100.4.49238    a.tribalfusion.c.https ESTABLISHED
tcp4       0      0  192.168.100.4.49236    a.tribalfusion.c.https ESTABLISHED
tcp4       0      0  192.168.100.4.49230    a23-8-7-153.depl.https ESTABLISHED
tcp4       0      0  192.168.100.4.49226    52.94.218.7.http       ESTABLISHED
tcp4       0      0  192.168.100.4.49225    bud02s24-in-f14..http  CLOSE_WAIT
tcp4       0      0  192.168.100.4.49218    a.tribalfusion.c.http  ESTABLISHED
tcp4       0      0  192.168.100.4.49206    a.tribalfusion.c.http  ESTABLISHED
tcp4       0      0  192.168.100.4.49205    a.tribalfusion.c.http  ESTABLISHED
tcp4       0      0  192.168.100.4.49204    a.tribalfusion.c.http  ESTABLISHED
tcp4       0      0  192.168.100.4.49195    52.94.237.66.http      ESTABLISHED
tcp4       0      0  192.168.100.4.49193    52.94.237.66.http      ESTABLISHED
tcp4       0      0  192.168.100.4.49179    199.16.156.120.https   ESTABLISHED
tcp4       0      0  192.168.100.4.49176    199.96.57.6.https      ESTABLISHED
tcp4       0      0  192.168.100.4.49175    176.32.103.183.http    ESTABLISHED
tcp4       0      0  192.168.100.4.49174    176.32.103.183.http    ESTABLISHED
tcp4       0      0  192.168.100.4.49172    a.tribalfusion.c.http  ESTABLISHED
tcp4       0      0  192.168.100.4.49169    prg02s12-in-f14..http  CLOSE_WAIT
tcp4       0      0  192.168.100.4.49168    81.198.165.233.http    ESTABLISHED
tcp4       0      0  192.168.100.4.49167    a.tribalfusion.c.http  ESTABLISHED
tcp4       0      0  192.168.100.4.49166    81.198.165.219.http    ESTABLISHED
tcp4       0      0  192.168.100.4.49163    176.32.96.208.https    ESTABLISHED
tcp4       0      0  192.168.100.4.49161    199.96.57.6.http       ESTABLISHED
tcp4       0      0  192.168.100.4.49160    waw02s07-in-f2.1.http  CLOSE_WAIT
tcp4       0      0  192.168.100.4.49158    tags.expo9.expon.http  ESTABLISHED
tcp4       0      0  192.168.100.4.65535    81.198.165.219.http    ESTABLISHED
tcp4       0      0  192.168.100.4.65529    40.127.129.109.https   ESTABLISHED
tcp4       0      0  192.168.100.4.65528    bud02s23-in-f206.https ESTABLISHED
tcp4       0      0  192.168.100.4.65502    waw02s07-in-f3.1.https ESTABLISHED
tcp4       0      0  192.168.100.4.65500    lt-in-f189.1e100.https ESTABLISHED
tcp4       0      0  192.168.100.4.65499    waw02s07-in-f14..https ESTABLISHED
tcp4       0      0  192.168.100.4.65494    91.190.216.52.12350    ESTABLISHED
tcp4       0      0  192.168.100.4.65489    lt-in-f189.1e100.https ESTABLISHED
tcp4       0      0  192.168.100.4.65486    li-in-f189.1e100.https ESTABLISHED
tcp4       0      0  192.168.100.4.65483    lo-in-f189.1e100.https ESTABLISHED
tcp4       0      0  192.168.100.4.65481    ec2-35-176-200-1.https ESTABLISHED
tcp4       0      0  192.168.100.4.65478    li-in-f108.1e100.imaps ESTABLISHED
tcp4       0      0  192.168.100.4.65467    17.252.28.98.5223      ESTABLISHED
tcp4       0      0  192.168.100.4.65464    17.188.166.9.5223      ESTABLISHED
tcp4       0      0  192.168.100.4.65461    13.69.188.18.https     ESTABLISHED
tcp4       0      0  192.168.100.4.65454    52.178.214.202.https   ESTABLISHED
tcp4       0      0  192.168.100.4.65453    64.4.23.150.40026      ESTABLISHED
udp4       0      0  192.168.100.4.51762    waw02s05-in-f3.1.https
udp4       0      0  192.168.100.4.52991    bud02s22-in-f206.https
udp4       0      0  192.168.100.4.60252    bud02s22-in-f206.https
udp4       0      0  192.168.100.4.58787    waw02s07-in-f2.1.https
udp4       0      0  192.168.100.4.52095    bud02s23-in-f206.https
udp4       0      0  *.*                    *.*
udp6       0      0  *.51049                *.*
udp4       0      0  *.51049                *.*
udp6       0      0  *.52293                *.*
udp4       0      0  *.52293                *.*
udp4       0      0  192.168.100.4.55133    lm-in-f189.1e100.https
udp4       0      0  192.168.100.4.59805    lo-in-f189.1e100.https
udp4       0      0  192.168.100.4.ntp      *.*
udp6       0      0  fe80::e0:d733:12.ntp   *.*
udp4       0      0  192.168.100.4.65273    lt-in-f189.1e100.https
udp6       0      0  *.63433                *.*
udp4       0      0  *.63433                *.*
udp4       0      0  192.168.100.4.38930    *.*
udp6       0      0  fe80::50b8:abff:.ntp   *.*
udp46      0      0  *.59851                *.*
udp4       0      0  localhost.59850        *.*
udp4       0      0  *.*                    *.*
udp4       0      0  *.*                    *.*
udp4       0      0  *.*                    *.*
udp4       0      0  *.*                    *.*
udp4       0      0  *.*                    *.*
udp4       0      0  *.*                    *.*
udp4       0      0  *.*                    *.*
udp4       0      0  *.*                    *.*
udp4       0      0  *.*                    *.*
udp4       0      0  *.*                    *.*
udp4       0      0  *.*                    *.*
udp4       0      0  *.*                    *.*
udp4       0      0  *.*                    *.*
udp4       0      0  *.*                    *.*
udp4       0      0  *.*                    *.*
udp4       0      0  *.*                    *.*
udp4       0      0  *.*                    *.*
udp6       0      0  fe80::21de:e01a:.ntp   *.*
udp6       0      0  fe80::1%lo0.ntp        *.*
udp6       0      0  localhost.ntp          *.*
udp4       0      0  localhost.ntp          *.*
udp4       0      0  *.ntp                  *.*
udp6       0      0  *.ntp                  *.*
udp4       0      0  *.*                    *.*
udp4       0      0  *.58380                *.*
udp4       0      0  *.*                    *.*
udp4       0      0  *.*                    *.*
udp4       0      0  *.*                    *.*
udp4       0      0  *.*                    *.*
udp4       0      0  *.*                    *.*
udp4       0      0  *.*                    *.*
udp4       0      0  *.*                    *.*
udp4       0      0  *.*                    *.*
udp4       0      0  *.*                    *.*
udp4       0      0  *.*                    *.*
udp4       0      0  *.*                    *.*
udp4       0      0  *.*                    *.*
udp4       0      0  *.*                    *.*
udp4       0      0  *.*                    *.*
udp4       0      0  *.*                    *.*
udp4       0      0  *.*                    *.*
udp4       0      0  *.*                    *.*
udp46      0      0  *.*                    *.*
udp6       0      0  *.mdns                 *.*
udp4       0      0  *.mdns                 *.*
udp4       0      0  *.*                    *.*
udp4       0      0  *.*                    *.*
udp4       0      0  *.*                    *.*
udp4       0      0  *.*                    *.*
udp4       0      0  *.netbios-ns           *.*
udp4       0      0  *.netbios-dgm          *.*
Active Multipath Internet connections
Proto/ID  Flags      Local Address          Foreign Address        (state)
Active LOCAL (UNIX) domain sockets
Address          Type   Recv-Q Send-Q            Inode             Conn             Refs          Nextref Addr
84c3c52422eaa711 stream      0      0                0 84c3c52422ea9c21                0                0 /var/run/mDNSResponder
84c3c52422ea9c21 stream      0      0                0 84c3c52422eaa711                0                0
84c3c5242a8806b1 stream      0      0                0 84c3c5242a87ffa9                0                0
84c3c5242a87ffa9 stream      0      0                0 84c3c5242a8806b1                0                0
84c3c5242a87f649 stream      0      0                0 84c3c5242a880459                0                0
84c3c5242a880459 stream      0      0                0 84c3c5242a87f649                0                0
84c3c5242a87e389 stream      0      0                0 84c3c5242a87f329                0                0
84c3c5242a87f329 stream      0      0                0 84c3c5242a87e389                0                0
84c3c5242a87edb1 stream      0      0                0 84c3c5242a87e519                0                0
84c3c5242a87e519 stream      0      0                0 84c3c5242a87edb1                0                0
84c3c5242a87e2c1 stream      0      0                0 84c3c5242a87f711                0                0 /var/run/mDNSResponder
84c3c5242a87f711 stream      0      0                0 84c3c5242a87e2c1                0                0
84c3c524244aea91 stream      0      0                0 84c3c524244aec21                0                0 /var/run/mDNSResponder
84c3c524244aec21 stream      0      0                0 84c3c524244aea91                0                0
84c3c524244af261 stream      0      0                0 84c3c524244ae839                0                0 /var/run/mDNSResponder
84c3c524244ae839 stream      0      0                0 84c3c524244af261                0                0
84c3c524244af649 stream      0      0                0 84c3c524244afe19                0                0 /var/run/mDNSResponder
84c3c524244afe19 stream      0      0                0 84c3c524244af649                0                0
84c3c524244ae6a9 stream      0      0                0 84c3c524244adbb9                0                0
84c3c524244adbb9 stream      0      0                0 84c3c524244ae6a9                0                0
84c3c524244aef41 stream      0      0                0 84c3c524244af0d1                0                0
84c3c524244af0d1 stream      0      0                0 84c3c524244aef41                0                0
84c3c524244ae901 stream      0      0                0 84c3c524244adaf1                0                0 /var/run/mDNSResponder
84c3c524244adaf1 stream      0      0                0 84c3c524244ae901                0                0
84c3c5241c9ce201 stream      0      0                0 84c3c5241c9cd969                0                0 /var/run/mDNSResponder
84c3c5241c9cd969 stream      0      0                0 84c3c5241c9ce201                0                0
84c3c524244af199 stream      0      0                0 84c3c524244ae9c9                0                0 /var/run/mDNSResponder
84c3c524244ae9c9 stream      0      0                0 84c3c524244af199                0                0
84c3c524244ae1f9 stream      0      0                0 84c3c524244adc81                0                0 /var/run/mDNSResponder
84c3c524244adc81 stream      0      0                0 84c3c524244ae1f9                0                0
84c3c524244ae069 stream      0      0                0 84c3c524244affa9                0                0 /var/run/mDNSResponder
84c3c524244affa9 stream      0      0                0 84c3c524244ae069                0                0
84c3c524244af711 stream      0      0                0 84c3c524244aded9                0                0
84c3c524244aded9 stream      0      0                0 84c3c524244af711                0                0
84c3c524244ada29 stream      0      0                0 84c3c524244aece9                0                0
84c3c524244aece9 stream      0      0                0 84c3c524244ada29                0                0
84c3c52422eab6b1 stream      0      0                0 84c3c52422eaabc1                0                0
84c3c52422eaabc1 stream      0      0                0 84c3c52422eab6b1                0                0
84c3c52422ea9a91 stream      0      0                0 84c3c52422eaac89                0                0
84c3c52422eaac89 stream      0      0                0 84c3c52422ea9a91                0                0
84c3c52422ea8a29 stream      0      0                0 84c3c52422ea8fa1                0                0
84c3c52422ea8fa1 stream      0      0                0 84c3c52422ea8a29                0                0
84c3c52422eaa7d9 stream      0      0                0 84c3c52422eaad51                0                0
84c3c52422eaad51 stream      0      0                0 84c3c52422eaa7d9                0                0
84c3c5241f6d5009 stream      0      0                0 84c3c5241f6d49c9                0                0
84c3c5241f6d49c9 stream      0      0                0 84c3c5241f6d5009                0                0
84c3c5241f6d3af1 stream      0      0                0 84c3c5241f6d3e11                0                0
84c3c5241f6d3e11 stream      0      0                0 84c3c5241f6d3af1                0                0
84c3c5241f6d5bc1 stream      0      0                0 84c3c5241f6d5711                0                0 /var/run/mDNSResponder
84c3c5241f6d5711 stream      0      0                0 84c3c5241f6d5bc1                0                0
84c3c5241f6d66b1 stream      0      0                0                0                0                0
84c3c5241f6d5329 stream      0      0                0                0                0                0
84c3c5241f6d5e19 stream      0      0                0 84c3c5241f6d53f1                0                0
84c3c5241f6d53f1 stream      0      0                0 84c3c5241f6d5e19                0                0
84c3c5241f6d62c9 stream      0      0                0 84c3c5241f6d5af9                0                0
84c3c5241f6d5af9 stream      0      0                0 84c3c5241f6d62c9                0                0
84c3c5241f6d5ee1 stream      0      0                0 84c3c5241f6d3d49                0                0
84c3c5241f6d3d49 stream      0      0                0 84c3c5241f6d5ee1                0                0
84c3c5241f6d41f9 stream      0      0                0 84c3c5241f6d50d1                0                0
84c3c5241f6d50d1 stream      0      0                0 84c3c5241f6d41f9                0                0
84c3c52422ea91f9 stream      0      0                0 84c3c52422ea8af1                0                0
84c3c52422ea8af1 stream      0      0                0 84c3c52422ea91f9                0                0
84c3c52422ea8ed9 stream      0      0                0 84c3c52422eab2c9                0                0
84c3c52422eab2c9 stream      0      0                0 84c3c52422ea8ed9                0                0
84c3c524244ae451 stream      0      0                0 84c3c524244afc89                0                0
84c3c524244afc89 stream      0      0                0 84c3c524244ae451                0                0
84c3c524244af8a1 stream      0      0                0 84c3c524244aee79                0                0
84c3c524244aee79 stream      0      0                0 84c3c524244af8a1                0                0
84c3c5242a880391 stream      0      0                0                0                0                0
84c3c5241f6d6201 stream      0      0                0 84c3c5241f6d5d51                0                0
84c3c5241f6d5d51 stream      0      0                0 84c3c5241f6d6201                0                0
84c3c5241f6d3961 stream      0      0                0 84c3c5241f6d4b59                0                0
84c3c5241f6d4b59 stream      0      0                0 84c3c5241f6d3961                0                0
84c3c5241f6d6391 stream      0      0                0 84c3c5241f6d4901                0                0
84c3c5241f6d4901 stream      0      0                0 84c3c5241f6d6391                0                0
84c3c5241f6d4c21 stream      0      0                0 84c3c5241f6d6521                0                0
84c3c5241f6d6521 stream      0      0                0 84c3c5241f6d4c21                0                0
84c3c52422ea8899 stream      0      0                0 84c3c52422ea96a9                0                0 /var/run/mDNSResponder
84c3c52422ea96a9 stream      0      0                0 84c3c52422ea8899                0                0
84c3c5241f6d65e9 stream      0      0                0 84c3c5241f6d5fa9                0                0
84c3c5241f6d5fa9 stream      0      0                0 84c3c5241f6d65e9                0                0
84c3c5241f6d4a91 stream      0      0                0 84c3c5241f6d6139                0                0
84c3c5241f6d6139 stream      0      0                0 84c3c5241f6d4a91                0                0
84c3c52422ea9771 stream      0      0                0 84c3c52422ea8961                0                0 /var/run/mDNSResponder
84c3c52422ea8961 stream      0      0                0 84c3c52422ea9771                0                0
84c3c524244aeb59 stream      0      0                0 84c3c524244af4b9                0                0
84c3c524244af4b9 stream      0      0                0 84c3c524244aeb59                0                0
84c3c524244adfa1 stream      0      0                0 84c3c524244aedb1                0                0 /var/run/mDNSResponder
84c3c524244aedb1 stream      0      0                0 84c3c524244adfa1                0                0
84c3c524244afa31 stream      0      0                0 84c3c524244ae5e1                0                0 /var/run/mDNSResponder
84c3c524244ae5e1 stream      0      0                0 84c3c524244afa31                0                0
84c3c524244ae771 stream      0      0                0 84c3c524244b0139                0                0 /var/run/mDNSResponder
84c3c524244b0139 stream      0      0                0 84c3c524244ae771                0                0
84c3c524244ade11 stream      0      0 84c3c52433c37c29                0                0                0 /var/folders/hb/220xm4v93vvf1z1kl_d55frw0000gn/T/chrome-3g4xE4/Socket
84c3c524244b0071 stream      0      0 84c3c52433c37b31                0                0                0 /var/folders/hb/220xm4v93vvf1z1kl_d55frw0000gn/T/.com.google.Chrome.mlCCnk/SingletonSocket
84c3c524244ae131 stream      0      0                0 84c3c524244afaf9                0                0
84c3c524244afaf9 stream      0      0                0 84c3c524244ae131                0                0
84c3c5242a87de11 stream      0      0                0 84c3c5242a87ec21                0                0
84c3c5242a87ec21 stream      0      0                0 84c3c5242a87de11                0                0
84c3c5242a87fc89 stream      0      0                0 84c3c5242a87fbc1                0                0
84c3c5242a87fbc1 stream      0      0                0 84c3c5242a87fc89                0                0
84c3c5242a87f4b9 stream      0      0                0 84c3c5242a87ee79                0                0
84c3c5242a87ee79 stream      0      0                0 84c3c5242a87f4b9                0                0
84c3c5242a87dfa1 stream      0      0                0 84c3c5242a87ece9                0                0
84c3c5242a87ece9 stream      0      0                0 84c3c5242a87dfa1                0                0
84c3c5242a87ea91 stream      0      0                0 84c3c5242a87e771                0                0
84c3c5242a87e771 stream      0      0                0 84c3c5242a87ea91                0                0
84c3c5242a87e6a9 stream      0      0                0 84c3c5242a87d961                0                0
84c3c5242a87d961 stream      0      0                0 84c3c5242a87e6a9                0                0
84c3c5242a87eb59 stream      0      0                0 84c3c5242a880521                0                0
84c3c5242a880521 stream      0      0                0 84c3c5242a87eb59                0                0
84c3c5242a87e901 stream      0      0                0 84c3c5242a87ded9                0                0
84c3c5242a87ded9 stream      0      0                0 84c3c5242a87e901                0                0
84c3c5242a880139 stream      0      0                0 84c3c5242a87d7d1                0                0
84c3c5242a87d7d1 stream      0      0                0 84c3c5242a880139                0                0
84c3c5242a87f581 stream      0      0                0 84c3c5242a87e069                0                0
84c3c5242a87e069 stream      0      0                0 84c3c5242a87f581                0                0
84c3c5242a87e9c9 stream      0      0                0 84c3c5242a87f0d1                0                0
84c3c5242a87f0d1 stream      0      0                0 84c3c5242a87e9c9                0                0
84c3c5242a87dd49 stream      0      0                0 84c3c5242a87e131                0                0
84c3c5242a87e131 stream      0      0                0 84c3c5242a87dd49                0                0
84c3c5242a87fee1 stream      0      0                0 84c3c5242a8802c9                0                0
84c3c5242a8802c9 stream      0      0                0 84c3c5242a87fee1                0                0
84c3c5242a87f8a1 stream      0      0                0 84c3c5242a87d899                0                0
84c3c5242a87d899 stream      0      0                0 84c3c5242a87f8a1                0                0
84c3c5242a87f3f1 stream      0      0                0 84c3c5242a880201                0                0
84c3c5242a880201 stream      0      0                0 84c3c5242a87f3f1                0                0
84c3c5242a87dbb9 stream      0      0                0 84c3c5242a87fa31                0                0
84c3c5242a87fa31 stream      0      0                0 84c3c5242a87dbb9                0                0
84c3c5242a87daf1 stream      0      0                0 84c3c5242a87faf9                0                0
84c3c5242a87faf9 stream      0      0                0 84c3c5242a87daf1                0                0
84c3c524255e3a91 stream      0      0                0 84c3c524255e4c89                0                0
84c3c524255e4c89 stream      0      0                0 84c3c524255e3a91                0                0
84c3c524255e2af1 stream      0      0                0 84c3c524255e55e9                0                0
84c3c524255e55e9 stream      0      0                0 84c3c524255e2af1                0                0
84c3c524255e5391 stream      0      0                0 84c3c524255e2e11                0                0
84c3c524255e2e11 stream      0      0                0 84c3c524255e5391                0                0
84c3c524255e3451 stream      0      0                0 84c3c524255e3131                0                0
84c3c524255e3131 stream      0      0                0 84c3c524255e3451                0                0
84c3c524255e2c81 stream      0      0                0 84c3c524255e2fa1                0                0
84c3c524255e2fa1 stream      0      0                0 84c3c524255e2c81                0                0
84c3c524255e5459 stream      0      0                0 84c3c524255e5201                0                0
84c3c524255e5201 stream      0      0                0 84c3c524255e5459                0                0
84c3c524255e4bc1 stream      0      0                0 84c3c524255e5071                0                0
84c3c524255e5071 stream      0      0                0 84c3c524255e4bc1                0                0
84c3c524255e2bb9 stream      0      0                0 84c3c524255e2961                0                0
84c3c524255e2961 stream      0      0                0 84c3c524255e2bb9                0                0
84c3c524255e4af9 stream      0      0                0 84c3c524255e3069                0                0
84c3c524255e3069 stream      0      0                0 84c3c524255e4af9                0                0
84c3c524255e4ee1 stream      0      0                0 84c3c524255e56b1                0                0
84c3c524255e56b1 stream      0      0                0 84c3c524255e4ee1                0                0
84c3c524255e4fa9 stream      0      0                0 84c3c524255e2d49                0                0
84c3c524255e2d49 stream      0      0                0 84c3c524255e4fa9                0                0
84c3c524255e36a9 stream      0      0                0 84c3c524255e2ed9                0                0
84c3c524255e2ed9 stream      0      0                0 84c3c524255e36a9                0                0
84c3c524255e27d1 stream      0      0                0 84c3c524255e2a29                0                0
84c3c524255e2a29 stream      0      0                0 84c3c524255e27d1                0                0
84c3c524255e5139 stream      0      0                0 84c3c524255e3519                0                0
84c3c524255e3519 stream      0      0                0 84c3c524255e5139                0                0
84c3c524255e52c9 stream      0      0                0 84c3c5241c9cbc81                0                0
84c3c5241c9cbc81 stream      0      0                0 84c3c524255e52c9                0                0
84c3c5241c9cd3f1 stream      0      0                0 84c3c5241c9cb961                0                0
84c3c5241c9cb961 stream      0      0                0 84c3c5241c9cd3f1                0                0
84c3c5241c9ce2c9 stream      0      0                0 84c3c5241c9cb899                0                0
84c3c5241c9cb899 stream      0      0                0 84c3c5241c9ce2c9                0                0
84c3c5241c9ce071 stream      0      0                0 84c3c5241c9ce391                0                0
84c3c5241c9ce391 stream      0      0                0 84c3c5241c9ce071                0                0
84c3c5241c9cba29 stream      0      0                0 84c3c5241c9cbd49                0                0
84c3c5241c9cbd49 stream      0      0                0 84c3c5241c9cba29                0                0
84c3c5241c9ce139 stream      0      0                0 84c3c5241c9cbaf1                0                0
84c3c5241c9cbaf1 stream      0      0                0 84c3c5241c9ce139                0                0
84c3c5241c9cdfa9 stream      0      0                0 84c3c5241c9ce459                0                0
84c3c5241c9ce459 stream      0      0                0 84c3c5241c9cdfa9                0                0
84c3c5241f6d3c81 stream      0      0                0 84c3c5241f6d4519                0                0 /var/run/mDNSResponder
84c3c5241f6d4519 stream      0      0                0 84c3c5241f6d3c81                0                0
84c3c524255e35e1 stream      0      0                0 84c3c524255e4581                0                0 /var/run/mDNSResponder
84c3c524255e4581 stream      0      0                0 84c3c524255e35e1                0                0
84c3c524255e31f9 stream      0      0                0 84c3c524255e32c1                0                0 /var/run/mDNSResponder
84c3c524255e32c1 stream      0      0                0 84c3c524255e31f9                0                0
84c3c524255e3771 stream      0      0                0 84c3c524255e3839                0                0 /var/run/mDNSResponder
84c3c524255e3839 stream      0      0                0 84c3c524255e3771                0                0
84c3c524255e3b59 stream      0      0                0 84c3c524255e3c21                0                0 /var/run/usbmuxd
84c3c524255e3c21 stream      0      0                0 84c3c524255e3b59                0                0
84c3c524255e3db1 stream      0      0                0 84c3c524255e3e79                0                0 /var/run/usbmuxd
84c3c524255e3e79 stream      0      0                0 84c3c524255e3db1                0                0
84c3c524255e4329 stream      0      0                0 84c3c524255e3f41                0                0 /var/run/mDNSResponder
84c3c524255e3f41 stream      0      0                0 84c3c524255e4329                0                0
84c3c524255e4009 stream      0      0                0 84c3c524255e40d1                0                0 /var/run/mDNSResponder
84c3c524255e40d1 stream      0      0                0 84c3c524255e4009                0                0
84c3c524255e4199 stream      0      0                0 84c3c524255e4261                0                0 /var/run/mDNSResponder
84c3c524255e4261 stream      0      0                0 84c3c524255e4199                0                0
84c3c52422eaa8a1 stream      0      0                0 84c3c52422eaa969                0                0 /var/run/mDNSResponder
84c3c52422eaa969 stream      0      0                0 84c3c52422eaa8a1                0                0
84c3c52422ea9069 stream      0      0                0 84c3c52422ea9131                0                0 /var/run/mDNSResponder
84c3c52422ea9131 stream      0      0                0 84c3c52422ea9069                0                0
84c3c524244b06b1 stream      0      0                0 84c3c524244b05e9                0                0 /var/run/mDNSResponder
84c3c524244b05e9 stream      0      0                0 84c3c524244b06b1                0                0
84c3c524244b0521 stream      0      0                0 84c3c524244b0391                0                0 /var/run/mDNSResponder
84c3c524244b0459 stream      0      0                0 84c3c524244b02c9                0                0 /var/run/mDNSResponder
84c3c524244b0391 stream      0      0                0 84c3c524244b0521                0                0
84c3c524244b02c9 stream      0      0                0 84c3c524244b0459                0                0
84c3c524244ad7d1 stream      0      0                0 84c3c524244b0201                0                0 /var/run/mDNSResponder
84c3c524244b0201 stream      0      0                0 84c3c524244ad7d1                0                0
84c3c524244ad899 stream      0      0                0 84c3c524244ad961                0                0 /var/run/mDNSResponder
84c3c524244ad961 stream      0      0                0 84c3c524244ad899                0                0
84c3c524244ae2c1 stream      0      0                0 84c3c524244ae389                0                0 /var/run/mDNSResponder
84c3c524244ae389 stream      0      0                0 84c3c524244ae2c1                0                0
84c3c52422ea9901 stream      0      0                0 84c3c52422ea92c1                0                0 /var/run/mDNSResponder
84c3c52422ea92c1 stream      0      0                0 84c3c52422ea9901                0                0
84c3c52422ea95e1 stream      0      0                0 84c3c52422ea9451                0                0 /var/run/mDNSResponder
84c3c52422ea9451 stream      0      0                0 84c3c52422ea95e1                0                0
84c3c52422eaa199 stream      0      0                0 84c3c52422eaa0d1                0                0 /var/run/mDNSResponder
84c3c52422eaa0d1 stream      0      0                0 84c3c52422eaa199                0                0
84c3c52422eaa009 stream      0      0                0 84c3c52422eaa329                0                0
84c3c52422eaa329 stream      0      0                0 84c3c52422eaa009                0                0
84c3c52422eaa261 stream      0      0                0 84c3c52422eaa3f1                0                0
84c3c52422eaa3f1 stream      0      0                0 84c3c52422eaa261                0                0
84c3c52422ea9e79 stream      0      0                0 84c3c52422ea9f41                0                0
84c3c52422ea9f41 stream      0      0                0 84c3c52422ea9e79                0                0
84c3c5241c9ce521 stream      0      0                0 84c3c5241c9cb7d1                0                0
84c3c5241c9cb7d1 stream      0      0                0 84c3c5241c9ce521                0                0
84c3c5241c9cdc89 stream      0      0 84c3c524209a1659                0                0                0 /private/tmp/com.apple.launchd.2kHBT1Rh34/Listeners
84c3c5241c9cda31 stream      0      0 84c3c52420975101                0                0                0 /private/tmp/com.apple.launchd.5ncR1gRkxU/Render
84c3c5241c9cdaf9 stream      0      0 84c3c52420974469                0                0                0 /var/tmp/filesystemui.socket
84c3c5241c9cc069 stream      0      0                0 84c3c5241c9cc131                0                0
84c3c5241c9cc131 stream      0      0                0 84c3c5241c9cc069                0                0
84c3c5241c9cd0d1 stream      0      0 84c3c5241d9402f1                0                0                0 /var/run/pppconfd
84c3c5241c9cd009 stream      0      0 84c3c5241cca8c29                0                0                0 /private/var/run/cupsd
84c3c5241c9cc389 stream      0      0 84c3c5241cc8dab9                0                0                0 /var/run/usbmuxd
84c3c5241c9ccf41 stream      0      0 84c3c5241cc825d9                0                0                0 /var/run/systemkeychaincheck.socket
84c3c5241c9cce79 stream      0      0 84c3c5241cc69101                0                0                0 /var/run/portmap.socket
84c3c5241c9ccdb1 stream      0      0 84c3c5241cc67da1                0                0                0 /var/run/vpncontrol.sock
84c3c5241c9ccce9 stream      0      0 84c3c5241cc55b31                0                0                0 /var/rpc/ncalrpc/NETLOGON
84c3c5241c9cc451 stream      0      0 84c3c5241cc55181                0                0                0 /var/rpc/ncacn_np/srvsvc
84c3c5241c9cc519 stream      0      0 84c3c5241cc55371                0                0                0 /var/rpc/ncalrpc/srvsvc
84c3c5241c9cc5e1 stream      0      0 84c3c5241cc55469                0                0                0 /var/rpc/ncacn_np/wkssvc
84c3c5241c9cc6a9 stream      0      0 84c3c5241cc55561                0                0                0 /var/rpc/ncalrpc/wkssvc
84c3c5241c9ccc21 stream      0      0 84c3c5241cc55a39                0                0                0 /var/rpc/ncacn_np/mdssvc
84c3c5241c9cc771 stream      0      0 84c3c5241cc3a8c9                0                0                0 /var/rpc/ncacn_np/lsarpc
84c3c5241c9ccb59 stream      0      0 84c3c5241cc3c1f9                0                0                0 /var/rpc/ncalrpc/lsarpc
84c3c5241c9cc839 stream      0      0 84c3c5241cc3b469                0                0                0 /var/run/mDNSResponder
84c3c5241c9cc901 stream      0      0 84c3c5241cc07f91                0                0                0 /private/var/run/.sim_diagnosticd_socket
84c3c5242a87e451 dgram       0      0                0 84c3c5241c9cc9c9                0 84c3c5242a87fd51
84c3c5242a87fd51 dgram       0      0                0 84c3c5241c9cc9c9                0 84c3c52422eaa4b9
84c3c52422eaa4b9 dgram       0      0                0 84c3c5241c9cc9c9                0 84c3c5241f6d4db1
84c3c5241f6d4db1 dgram       0      0                0 84c3c5241c9cc9c9                0 84c3c5241f6d6459
84c3c5241f6d6459 dgram       0      0                0 84c3c5241c9cc9c9                0 84c3c5241f6d5261
84c3c5241f6d4389 dgram       0      0                0 84c3c5241f6d3ed9 84c3c5241f6d3ed9                0
84c3c5241f6d3ed9 dgram       0      0                0 84c3c5241f6d4389 84c3c5241f6d4389                0
84c3c5241f6d5c89 dgram       0      0                0 84c3c5241f6d3fa1 84c3c5241f6d3fa1                0
84c3c5241f6d3fa1 dgram       0      0                0 84c3c5241f6d5c89 84c3c5241f6d5c89                0
84c3c5241f6d5261 dgram       0      0                0 84c3c5241c9cc9c9                0 84c3c52422ea8c81
84c3c52422ea9389 dgram       0      0                0 84c3c52422eaaaf9 84c3c52422eaaaf9                0
84c3c52422eaaaf9 dgram       0      0                0 84c3c52422ea9389 84c3c52422ea9389                0
84c3c52422ea8c81 dgram       0      0                0 84c3c5241c9cc9c9                0 84c3c524244afbc1
84c3c524244afbc1 dgram       0      0                0 84c3c5241c9cc9c9                0 84c3c5241f6d4ce9
84c3c5241f6d4ce9 dgram       0      0                0 84c3c5241c9cc9c9                0 84c3c5242a87e5e1
84c3c524244af969 dgram       0      0                0 84c3c524244af329 84c3c524244af329                0
84c3c524244af329 dgram       0      0                0 84c3c524244af969 84c3c524244af969                0
84c3c5242a87e5e1 dgram       0      0                0 84c3c5241c9cc9c9                0 84c3c524244afee1
84c3c524244afee1 dgram       0      0                0 84c3c5241c9cc9c9                0 84c3c5241f6d37d1
84c3c5241f6d37d1 dgram       0      0                0 84c3c5241c9cc9c9                0 84c3c5241f6d4f41
84c3c5241f6d4f41 dgram       0      0                0 84c3c5241c9cc9c9                0 84c3c524255e3389
84c3c524255e3389 dgram       0      0                0 84c3c5241c9cc9c9                0 84c3c524255e5521
84c3c524255e5521 dgram       0      0                0 84c3c5241c9cc9c9                0 84c3c524255e2899
84c3c524255e2899 dgram       0      0                0 84c3c5241c9cc9c9                0 84c3c5241f6d46a9
84c3c5241f6d46a9 dgram       0      0                0 84c3c5241c9cc9c9                0 84c3c5241f6d6071
84c3c5241f6d6071 dgram       0      0                0 84c3c5241c9cc9c9                0 84c3c5242a87fe19
84c3c5242a87fe19 dgram       0      0                0 84c3c5241c9cc9c9                0 84c3c5242a87dc81
84c3c5242a87f199 dgram       0      0                0 84c3c5242a87da29 84c3c5242a87da29                0
84c3c5242a87da29 dgram       0      0                0 84c3c5242a87f199 84c3c5242a87f199                0
84c3c5242a87dc81 dgram       0      0                0 84c3c5241c9cc9c9                0 84c3c5242a87f009
84c3c5242a87ef41 dgram       0      0                0 84c3c5242a87f7d9 84c3c5242a87f7d9                0
84c3c5242a87f7d9 dgram       0      0                0 84c3c5242a87ef41 84c3c5242a87ef41                0
84c3c5242a87f009 dgram       0      0                0 84c3c5241c9cc9c9                0 84c3c524244af581
84c3c524244af581 dgram       0      0                0 84c3c5241c9cc9c9                0 84c3c524255e4d51
84c3c524255e4d51 dgram       0      0                0 84c3c5241c9cc9c9                0 84c3c524255e4a31
84c3c524255e4a31 dgram       0      0                0 84c3c5241c9cc9c9                0 84c3c524255e44b9
84c3c524255e47d9 dgram       0      0                0 84c3c524255e48a1 84c3c524255e48a1                0
84c3c524255e48a1 dgram       0      0                0 84c3c524255e47d9 84c3c524255e47d9                0
84c3c524255e44b9 dgram       0      0                0 84c3c5241c9cc9c9                0 84c3c524255e39c9
84c3c524255e39c9 dgram       0      0                0 84c3c5241c9cc9c9                0 84c3c5241c9cbe11
84c3c524255e3901 dgram       0      0                0 84c3c524255e4969 84c3c524255e4969                0
84c3c524255e4969 dgram       0      0                0 84c3c524255e3901 84c3c524255e3901                0
84c3c524255e4711 dgram       0      0                0 84c3c524255e4649 84c3c524255e4649                0
84c3c524255e4649 dgram       0      0                0 84c3c524255e4711 84c3c524255e4711                0
84c3c524255e3ce9 dgram       0      0                0 84c3c524255e43f1 84c3c524255e43f1                0
84c3c524255e43f1 dgram       0      0                0 84c3c524255e3ce9 84c3c524255e3ce9                0
84c3c52422ea9ce9 dgram       0      0                0 84c3c52422eaa581 84c3c52422eaa581                0
84c3c52422eaa581 dgram       0      0                0 84c3c52422ea9ce9 84c3c52422ea9ce9                0
84c3c5241c9ce6b1 dgram       0      0                0 84c3c5241c9ce5e9 84c3c5241c9ce5e9                0
84c3c5241c9ce5e9 dgram       0      0                0 84c3c5241c9ce6b1 84c3c5241c9ce6b1                0
84c3c5241c9cbe11 dgram       0      0                0 84c3c5241c9cc9c9                0 84c3c5241c9cdbc1
84c3c5241c9cdbc1 dgram       0      0                0 84c3c5241c9cc9c9                0 84c3c5241c9cd8a1
84c3c5241c9cd8a1 dgram       0      0                0 84c3c5241c9cc9c9                0 84c3c5241c9cca91
84c3c5241c9cd329 dgram       0      0                0 84c3c5241c9cd7d9 84c3c5241c9cd7d9                0
84c3c5241c9cd7d9 dgram       0      0                0 84c3c5241c9cd329 84c3c5241c9cd329                0
84c3c5241c9cd711 dgram       0      0                0 84c3c5241c9cd649 84c3c5241c9cd649                0
84c3c5241c9cd649 dgram       0      0                0 84c3c5241c9cd711 84c3c5241c9cd711                0
84c3c5241c9cd581 dgram       0      0                0 84c3c5241c9cd4b9 84c3c5241c9cd4b9                0
84c3c5241c9cd4b9 dgram       0      0                0 84c3c5241c9cd581 84c3c5241c9cd581                0
84c3c5241c9cd261 dgram       0      0                0 84c3c5241c9cd199 84c3c5241c9cd199                0
84c3c5241c9cd199 dgram       0      0                0 84c3c5241c9cd261 84c3c5241c9cd261                0
84c3c5241c9cc1f9 dgram       0      0                0 84c3c5241c9cc2c1 84c3c5241c9cc2c1                0
84c3c5241c9cc2c1 dgram       0      0                0 84c3c5241c9cc1f9 84c3c5241c9cc1f9                0
84c3c5241c9cca91 dgram       0      0                0 84c3c5241c9cc9c9                0                0
84c3c5241c9cc9c9 dgram       0      0 84c3c5241c9c4469                0 84c3c5242a87e451                0 /private//var/run/syslog
Registered kernel control modules
id       flags    pcbcount rcvbuf   sndbuf   name
       1        9        0   131072   131072 com.apple.flow-divert
       2        1        0    16384     2048 com.apple.nke.sockwall
       3        9        0   524288   524288 com.apple.content-filter
       4        9        0     8192     2048 com.apple.packet-mangler
       5        1        5    65536    65536 com.apple.net.necp_control
       6        1       12    65536    65536 com.apple.net.netagent
       7        9        1   524288   524288 com.apple.net.utun_control
       8        1        0    65536    65536 com.apple.net.ipsec_control
       9        0       27     8192     2048 com.apple.netsrc
       a       18        4     8192     2048 com.apple.network.statistics
       b        5        0     8192     2048 com.apple.network.tcp_ccdebug
       c        1        1     8192     2048 com.apple.network.advisory
Active kernel event sockets
Proto Recv-Q Send-Q vendor  class subcla
kevt       0      0      1      6      1
kevt       0      0      1      6      1
kevt       0      0      1      6      1
kevt       0      0      1      6      1
kevt       0      0      1      1      2
kevt       0      0      1      1     11
kevt       0      0      1      6      1
kevt       0      0      1      1      7
kevt       0      0      1      1      1
kevt       0      0      1      6      1
kevt       0      0      1      6      1
kevt       0      0      1      6      1
kevt       0      0      1      6      1
kevt       0      0      1      6      1
kevt       0      0      1      1      2
kevt       0      0      1      1      2
kevt       0      0      1      6      1
kevt       0      0      1      6      1
kevt       0      0      1      1      0
Active kernel control sockets
Proto Recv-Q Send-Q   unit     id name
kctl       0      0      1      5 com.apple.net.necp_control
kctl       0      0      2      5 com.apple.net.necp_control
kctl       0      0      3      5 com.apple.net.necp_control
kctl       0      0      4      5 com.apple.net.necp_control
kctl       0      0      5      5 com.apple.net.necp_control
kctl       0      0      1      6 com.apple.net.netagent
kctl       0      0      2      6 com.apple.net.netagent
kctl       0      0      3      6 com.apple.net.netagent
kctl       0      0      4      6 com.apple.net.netagent
kctl       0      0      5      6 com.apple.net.netagent
kctl       0      0      6      6 com.apple.net.netagent
kctl       0      0      7      6 com.apple.net.netagent
kctl       0      0      8      6 com.apple.net.netagent
kctl       0      0      9      6 com.apple.net.netagent
kctl       0      0     10      6 com.apple.net.netagent
kctl       0      0     11      6 com.apple.net.netagent
kctl       0      0     12      6 com.apple.net.netagent
kctl       0      0      1      7 com.apple.net.utun_control
kctl       0      0      1      9 com.apple.netsrc
kctl       0      0      2      9 com.apple.netsrc
kctl       0      0      3      9 com.apple.netsrc
kctl       0      0      4      9 com.apple.netsrc
kctl       0      0      5      9 com.apple.netsrc
kctl       0      0      6      9 com.apple.netsrc
kctl       0      0      7      9 com.apple.netsrc
kctl       0      0      8      9 com.apple.netsrc
kctl       0      0      9      9 com.apple.netsrc
kctl       0      0     10      9 com.apple.netsrc
kctl       0      0     11      9 com.apple.netsrc
kctl       0      0     12      9 com.apple.netsrc
kctl       0      0     13      9 com.apple.netsrc
kctl       0      0     14      9 com.apple.netsrc
kctl       0      0     15      9 com.apple.netsrc
kctl       0      0     16      9 com.apple.netsrc
kctl       0      0     17      9 com.apple.netsrc
kctl       0      0     18      9 com.apple.netsrc
kctl       0      0     19      9 com.apple.netsrc
kctl       0      0     20      9 com.apple.netsrc
kctl       0      0     21      9 com.apple.netsrc
kctl       0      0     22      9 com.apple.netsrc
kctl       0      0     23      9 com.apple.netsrc
kctl       0      0     24      9 com.apple.netsrc
kctl       0      0     25      9 com.apple.netsrc
kctl       0      0     26      9 com.apple.netsrc
kctl       0      0     28      9 com.apple.netsrc
kctl       0      0      1     10 com.apple.network.statistics
kctl       0      0      2     10 com.apple.network.statistics
kctl       0      0      3     10 com.apple.network.statistics
kctl       0      0      4     10 com.apple.network.statistics
kctl       0      0      1     12 com.apple.network.advisory
